The Impact of Harmful Weather Events to Health and Economy in the United States
…
totalDamage2 <- totalDamage %>%
    select(EVTYPE, TOTALDMG) %>%
    group_by(EVTYPE) %>%
    summarize(sum = sum(TOTALDMG)) %>%
    arrange(-sum)
totalDamage2

## # A tibble: 985 x 2
##               EVTYPE          sum
##               <fctr>        <dbl>
##  1             FLOOD 150319678257
##  2 HURRICANE/TYPHOON  71913712800
##  3           TORNADO  57362333946
##  4       STORM SURGE  43323541000
##  5              HAIL  18761221986
##  6       FLASH FLOOD  18243991078
##  7           DROUGHT  15018672000
##  8         HURRICANE  14610229010
##  9       RIVER FLOOD  10148404500
## 10         ICE STORM   8967041360
## # ... with 975 more rows
…
